{
    "Scrum Masters": [
        {
            "age": 21,
            "efficency mark": 4.8,
            "name": "Zoe",
            "team": [
                "Helena",
                "Vlad",
                "Polyak",
                "Roman",
                "Lisa"
            ]
        },
        {
            "age": 32,
            "efficency mark": 4.1,
            "name": "Kyle",
            "team": [
                "Lele",
                "Igor",
                "Joe",
                "Will"
            ]
        },
        {
            "age": 26,
            "efficency mark": 3.4,
            "name": "Moe",
            "team": [
                "Lotric",
                "Andy",
                "Terry"
            ]
        }
    ]
}
